Journal (Business Data Science Basics)
…
1 Sales Analysis

1.1 Importing all required libraries

1.2 Importing Files

bikeshops_tbl  <- read_excel(path = "C:/Users/Aashik Udupi/Desktop/R_Projects/00_data/01_bike_sales/01_raw_data/bikeshops.xlsx")
bikes_tbl      <- read_excel(path = "C:/Users/Aashik Udupi/Desktop/R_Projects/00_data/01_bike_sales/01_raw_data/bikes.xlsx")
orderlines_tbl <- read_excel(path = "C:/Users/Aashik Udupi/Desktop/R_Projects/00_data/01_bike_sales/01_raw_data/orderlines.xlsx")

1.3 Examining Data

bikeshops_tbl

## # A tibble: 30 x 5
##    bikeshop.id name                  location                          lat   lng
##          <dbl> <chr>                 <chr>                           <dbl> <dbl>
##  1           1 Zum Goldenen Lenker   Berlin, Berlin                   52.5 13.4 
##  2           2 AlexandeRad           Hamburg, Hamburg                 53.6 10.0 
##  3           3 Fahrradladen 16       Munich, Bavaria                  48.2 11.6 
##  4           4 Bikestation Köln      Cologne, North Rhine-Westphalia  50.9  6.95
##  5           5 Montimare             Frankfurt, Hesse                 50.1  8.68
##  6           6 fahrschneller         Stuttgart, Baden-Württemberg     48.8  9.18
##  7           7 Rad Ab                Düsseldorf, North Rhine-Westph~  51.2  6.79
##  8           8 Lucky Bike            Dortmund, North Rhine-Westphal~  51.5  7.47
##  9           9 Zweirad-Center Stadl~ Essen, North Rhine-Westphalia    51.5  7.01
## 10          10 WITT-RAD              Bremen, Bremen                   53.1  8.83
## # ... with 20 more rows

bikes_tbl

## # A tibble: 231 x 9
##    bike.id model  model.year frame.material weight price category gender url    
##      <dbl> <chr>       <dbl> <chr>           <dbl> <dbl> <chr>    <chr>  <chr>  
##  1    2875 Aeroa~       2020 carbon           7.6   4579 Road - ~ unisex https:~
##  2    2873 Aeroa~       2020 carbon           7.27  6919 Road - ~ unisex https:~
##  3    2874 Aeroa~       2020 carbon           7.1   6429 Road - ~ unisex https:~
##  4    2876 Aeroa~       2020 carbon           7.73  5069 Road - ~ unisex https:~
##  5    2877 Aeroa~       2020 carbon           7.83  3609 Road - ~ unisex https:~
##  6    2225 Aeroa~       2019 carbon           6.8   6139 Road - ~ unisex https:~
##  7    2091 Aeroa~       2019 carbon           6.8   5359 Road - ~ unisex https:~
##  8    2086 Aeroa~       2021 carbon           7.6   2629 Road - ~ unisex https:~
##  9    2088 Aeroa~       2020 carbon           7.3   3699 Road - ~ unisex https:~
## 10    2120 Aeroa~       2020 carbon           7.2   3219 Road - ~ female https:~
## # ... with 221 more rows

orderlines_tbl

## # A tibble: 15,644 x 7
##    ...1  order.id order.line order.date          customer.id product.id quantity
##    <chr>    <dbl>      <dbl> <dttm>                    <dbl>      <dbl>    <dbl>
##  1 1            1          1 2015-01-07 00:00:00           2       2681        1
##  2 2            1          2 2015-01-07 00:00:00           2       2411        1
##  3 3            2          1 2015-01-10 00:00:00          10       2629        1
##  4 4            2          2 2015-01-10 00:00:00          10       2137        1
##  5 5            3          1 2015-01-10 00:00:00           6       2367        1
##  6 6            3          2 2015-01-10 00:00:00           6       1973        1
##  7 7            3          3 2015-01-10 00:00:00           6       2422        1
##  8 8            3          4 2015-01-10 00:00:00           6       2655        1
##  9 9            3          5 2015-01-10 00:00:00           6       2247        1
## 10 10           4          1 2015-01-11 00:00:00          22       2408        1
## # ... with 15,634 more rows

1.4 Split Location : City, State

bike_shops_wrangled_tbl <- bikeshops_tbl %>%
  separate(col    = location,
           into   = c("city", "state"),
           sep    = ",") 
bike_shops_wrangled_tbl

## # A tibble: 30 x 6
##    bikeshop.id name                 city      state                    lat   lng
##          <dbl> <chr>                <chr>     <chr>                  <dbl> <dbl>
##  1           1 Zum Goldenen Lenker  Berlin    " Berlin"               52.5 13.4 
##  2           2 AlexandeRad          Hamburg   " Hamburg"              53.6 10.0 
##  3           3 Fahrradladen 16      Munich    " Bavaria"              48.2 11.6 
##  4           4 Bikestation Köln     Cologne   " North Rhine-Westpha~  50.9  6.95
##  5           5 Montimare            Frankfurt " Hesse"                50.1  8.68
##  6           6 fahrschneller        Stuttgart " Baden-Württemberg"    48.8  9.18
##  7           7 Rad Ab               Düsseldo~ " North Rhine-Westpha~  51.2  6.79
##  8           8 Lucky Bike           Dortmund  " North Rhine-Westpha~  51.5  7.47
##  9           9 Zweirad-Center Stad~ Essen     " North Rhine-Westpha~  51.5  7.01
## 10          10 WITT-RAD             Bremen    " Bremen"               53.1  8.83
## # ... with 20 more rows
…
bikes_simplified_tbl <- bikes_tbl %>%
  select(bike.id, model, price)

orderlines_simplified_tbl <- orderlines_tbl %>%
  select(...1, order.id, order.line, customer.id, product.id, quantity)

bikeshops_simplified_tbl <- bike_shops_wrangled_tbl %>% 
  select(bikeshop.id, city, state)
bikes_orderlines_tbl <- left_join(orderlines_simplified_tbl, bikes_simplified_tbl, by = c( "product.id" = "bike.id"))

bikes_summary_tbl <- left_join(bikes_orderlines_tbl, bikeshops_simplified_tbl, by = c( "customer.id" = "bikeshop.id"))
bikes_summary_tbl

## # A tibble: 15,644 x 10
##    ...1  order.id order.line customer.id product.id quantity model price city 
##    <chr>    <dbl>      <dbl>       <dbl>      <dbl>    <dbl> <chr> <dbl> <chr>
##  1 1            1          1           2       2681        1 Spec~  3119 Hamb~
##  2 2            1          2           2       2411        1 Ulti~  5359 Hamb~
##  3 3            2          1          10       2629        1 Neur~  2729 Brem~
##  4 4            2          2          10       2137        1 Spee~  1749 Brem~
##  5 5            3          1           6       2367        1 Stit~  1219 Stut~
##  6 6            3          2           6       1973        1 Road~  1359 Stut~
##  7 7            3          3           6       2422        1 Spee~  2529 Stut~
##  8 8            3          4           6       2655        1 Infl~  1559 Stut~
##  9 9            3          5           6       2247        1 Torq~  3899 Stut~
## 10 10           4          1          22       2408        1 Ulti~  6629 Augs~
## # ... with 15,634 more rows, and 1 more variable: state <chr>
…
